…
3.  Calculate the TF-IDF value for each word-search term combination.
    (here you want the search term to be the “document”) What are the 5
    tokens from each search term with the highest TF-IDF value? How are
    the results different from the answers you got in question 1?

``` r
df %>%
  unnest_tokens(abstract, abstract) %>%
  count(abstract, term) %>%
  bind_tf_idf(abstract, term, n) %>%
  arrange(desc(tf_idf))
```

    ## # A tibble: 39,339 x 6
    ##    abstract     term                n      tf   idf  tf_idf
    ##    <chr>        <chr>           <int>   <dbl> <dbl>   <dbl>
    ##  1 covid        covid            7267 0.0370  1.61  0.0596 
    ##  2 prostate     prostate cancer  3832 0.0312  1.61  0.0502 
    ##  3 eclampsia    preeclampsia     2005 0.0143  1.61  0.0230 
    ##  4 preeclampsia preeclampsia     1863 0.0133  1.61  0.0213 
    ##  5 meningitis   meningitis        429 0.00919 1.61  0.0148 
    ##  6 cf           cystic fibrosis   625 0.0127  0.916 0.0117 
    ##  7 fibrosis     cystic fibrosis   867 0.0176  0.511 0.00901
    ##  8 cystic       cystic fibrosis   862 0.0175  0.511 0.00896
    ##  9 meningeal    meningitis        219 0.00469 1.61  0.00755
    ## 10 pandemic     covid             800 0.00408 1.61  0.00656
    ## # ... with 39,329 more rows
…
